MemTotal:        3949332 kB
MemFree:          233496 kB
MemAvailable:    1896584 kB
Buffers:          524428 kB
Cached:          1646464 kB
SwapCached:            0 kB
Active:          1957268 kB
Inactive:        1494628 kB
Active(anon):    1012144 kB
Inactive(anon):   638676 kB
Active(file):     945124 kB
Inactive(file):   855952 kB
Unevictable:          16 kB
Mlocked:              16 kB
SwapTotal:             0 kB
SwapFree:              0 kB
Dirty:                 0 kB
Writeback:             0 kB
AnonPages:       1281104 kB
Mapped:           384020 kB
Shmem:            714560 kB
Slab:             175228 kB
SReclaimable:     129496 kB
SUnreclaim:        45732 kB
KernelStack:       10064 kB
PageTables:        37308 kB
NFS_Unstable:          0 kB
Bounce:                0 kB
WritebackTmp:          0 kB
CommitLimit:     1974664 kB
Committed_AS:    6448744 kB
VmallocTotal:   34359738367 kB
VmallocUsed:           0 kB
VmallocChunk:          0 kB
HardwareCorrupted:     0 kB
AnonHugePages:         0 kB
ShmemHugePages:        0 kB
ShmemPmdMapped:        0 kB
CmaTotal:              0 kB
CmaFree:               0 kB
HugePages_Total:       0
HugePages_Free:        0
HugePages_Rsvd:        0
HugePages_Surp:        0
Hugepagesize:       2048 kB
DirectMap4k:      161744 kB
DirectMap2M:     3942400 kB
DirectMap1G:           0 kB
